{
  "$schema": "http://json-schema.org/draft-04/schema#",
  "type": "object",
  "properties": {
    "configuration": {
      "type": "object",
      "properties": {
        "bindings": {
          "type": "array",
          "description": "Bindings",
          "items": {
            "type": "object",
            "properties": {
              "port": {
                "description": "Port",
                "type": "string"
              },
              "num": {
                "description": "Number of bindings",
                "type": "integer"
              },
              "requirer": {
                "description": "Requirer type",
                "type": "string"
              },
              "provider": {
                "description": "Provider type",
                "type": "string"
              }
            },
            "required": [
              "port",
              "num",
              "requirer",
              "provider"
            ]
          }
        },
        "locations": {
          "type": "object",
          "description": "Locations",
          "additionalProperties": {
            "description": "Location type",
            "type": "object",
            "additionalProperties": {
              "description": "Component number in that location",
              "type": "object",
              "additionalProperties": {
                "type": "integer"
              }
            }
          }
        }
      },
      "required": [
        "bindings",
        "locations"
      ]
    },
    "optimized_bindings": {
      "type": "array",
      "items": {
        "type": "object",
        "properties": {
          "prov_location_num": {
            "description": "Location number of the provider",
            "type": "string"
          },
          "req_location_num": {
            "description": "Location number of the requirer",
            "type": "string"
          },
          "req_comp": {
            "description": "Name of the requirer component",
            "type": "string"
          },
          "req_comp_num": {
            "description": "Number or requirer in its location",
            "type": "integer"
          },
          "prov_location": {
            "description": "Location type of the provider",
            "type": "string"
          },
          "prov_comp": {
            "description": "Name of the provider component",
            "type": "string"
          },
          "prov_comp_num": {
            "description": "Number or provider in its location",
            "type": "integer"
          },
          "req_location": {
            "description": "Location type of the requirer",
            "type": "string"
          },
          "port": {
            "description": "Port of the binding",
            "type": "string"
          }
        },
        "required": [
          "prov_location_num",
          "req_location_num",
          "req_comp",
          "req_comp_num",
          "prov_location",
          "prov_comp",
          "prov_comp_num",
          "req_location",
          "port"
        ]
      }
    }
  },
  "required": [
    "configuration",
    "optimized_bindings"
  ]
}